<?xml version="1.0" standalone="no"?>
<!DOCTYPE svg PUBLIC "-//W3C//DTD SVG 1.1//EN" "http://www.w3.org/Graphics/SVG/1.1/DTD/svg11.dtd" >
<svg xmlns="http://www.w3.org/2000/svg">
<metadata>Generated by IcoMoon</metadata>
<defs>
<font id="icomoon" horiz-adv-x="1024">
<font-face units-per-em="1024" ascent="960" descent="-64" />
<missing-glyph horiz-adv-x="1024" />
<glyph unicode="&#x20;" horiz-adv-x="512" d="" />
<glyph unicode="&#x41;" glyph-name="LandoltRing" horiz-adv-x="1014" d="M801.886 345.603c-42.287-119.186-156.15-204.803-289.694-204.803-169.455 0-307.315 137.808-307.315 307.2 0 169.39 137.86 307.2 307.315 307.2 133.542 0 247.404-85.616 289.692-204.8h212.234c-47.461 233.699-254.134 409.599-501.927 409.599-282.877 0-512.192-229.231-512.192-512s229.315-512 512.192-512c247.792 0 454.468 175.904 501.927 409.603h-212.232z" />
</font></defs></svg>